Mutation Signatures Tutorial
…
maf %>%
  group_by(Tumor_Sample_Barcode) %>%
  summarise(n_mutations = n()) %>%
  arrange(-n_mutations)

## # A tibble: 49 x 2
##    Tumor_Sample_Barcode         n_mutations
##    <chr>                              <int>
##  1 TCGA-W5-AA39-01A-11D-A417-09        1210
##  2 TCGA-ZH-A8Y7-01A-21D-A46P-09         563
##  3 TCGA-W7-A93O-01A-31D-A46P-09         122
##  4 TCGA-5A-A8ZF-01A-12D-A46P-09         107
##  5 TCGA-W5-AA2U-01A-11D-A417-09         101
##  6 TCGA-ZH-A8Y6-01A-11D-A417-09          74
##  7 TCGA-4G-AAZG-01A-11D-A46P-09          69
##  8 TCGA-ZH-A8Y4-01A-11D-A417-09          65
##  9 TCGA-W5-AA30-01A-31D-A417-09          59
## 10 TCGA-W5-AA36-01A-11D-A417-09          59
## # ... with 39 more rows
…
